%YAML 1.1
%TAG !u! tag:unity3d.com,2011:
--- !u!114 &11400000
MonoBehaviour:
  m_ObjectHideFlags: 0
  m_CorrespondingSourceObject: {fileID: 0}
  m_PrefabInstance: {fileID: 0}
  m_PrefabAsset: {fileID: 0}
  m_GameObject: {fileID: 0}
  m_Enabled: 1
  m_EditorHideFlags: 0
  m_Script: {fileID: 11500000, guid: abf7e32fe2306854a9d8f439c8da849c, type: 3}
  m_Name: 1_Down
  m_EditorClassIdentifier: 
  gesturePattern: {fileID: 11400000, guid: b8cda9ea09430e44fa4a444bcd4bdc0a, type: 2}
  gestureSprite: {fileID: 21300000, guid: f960b525d9a924966b4e65c60549bd00, type: 3}
