%YAML 1.1
%TAG !u! tag:unity3d.com,2011:
--- !u!114 &11400000
MonoBehaviour:
  m_ObjectHideFlags: 0
  m_CorrespondingSourceObject: {fileID: 0}
  m_PrefabInstance: {fileID: 0}
  m_PrefabAsset: {fileID: 0}
  m_GameObject: {fileID: 0}
  m_Enabled: 1
  m_EditorHideFlags: 0
  m_Script: {fileID: 11500000, guid: abf7e32fe2306854a9d8f439c8da849c, type: 3}
  m_Name: 3_Curve2
  m_EditorClassIdentifier: 
  gesturePattern: {fileID: 11400000, guid: a648ff2e9fed8f9419e36a757d3f5e4a, type: 2}
  gestureSprite: {fileID: 21300000, guid: 2b62e69c60b2c4445915c41c8aeac9f2, type: 3}
