%YAML 1.1
%TAG !u! tag:unity3d.com,2011:
--- !u!114 &11400000
MonoBehaviour:
  m_ObjectHideFlags: 0
  m_CorrespondingSourceObject: {fileID: 0}
  m_PrefabInstance: {fileID: 0}
  m_PrefabAsset: {fileID: 0}
  m_GameObject: {fileID: 0}
  m_Enabled: 1
  m_EditorHideFlags: 0
  m_Script: {fileID: 11500000, guid: abf7e32fe2306854a9d8f439c8da849c, type: 3}
  m_Name: 3_VS1
  m_EditorClassIdentifier: 
  gesturePattern: {fileID: 11400000, guid: 8fc58bd395d99844588a59593753f383, type: 2}
  gestureSprite: {fileID: 21300000, guid: 89979762896734eddbef2a39b9111f0c, type: 3}
