%YAML 1.1
%TAG !u! tag:unity3d.com,2011:
--- !u!114 &11400000
MonoBehaviour:
  m_ObjectHideFlags: 0
  m_CorrespondingSourceObject: {fileID: 0}
  m_PrefabInstance: {fileID: 0}
  m_PrefabAsset: {fileID: 0}
  m_GameObject: {fileID: 0}
  m_Enabled: 1
  m_EditorHideFlags: 0
  m_Script: {fileID: 11500000, guid: 7ce0fdb4e39b5744abf0c061bd2a3e30, type: 3}
  m_Name: Curve2
  m_EditorClassIdentifier: 
  id: curve
  points: []
  gesture:
    lines:
    - points:
      - {x: 0.875, y: 0.875}
      - {x: 0.125, y: 0.875}
      - {x: 0.125, y: 0.125}
      - {x: 0.875, y: 0.125}
      - {x: 0.875, y: 0.5}
      - {x: 0.5, y: 0.5}
      closedLine: 0
  useLinesOrder: 0
  useLinesDirections: 0
